…
Contar celdas por cada distrito

``` r
dist_summ <- seleccionDistritos %>% group_by(nombre, nom_cant) %>% summarise("celdas" = n()) %>% arrange(celdas) %>% select(nombre, nom_cant, celdas)

dist_summ
```

    ## Simple feature collection with 107 features and 3 fields
    ## geometry type:  GEOMETRY
    ## dimension:      XY
    ## bbox:           xmin: -85.84772 ymin: 9.602155 xmax: -84.49772 ymax: 11.20215
    ## epsg (SRID):    4326
    ## proj4string:    +proj=longlat +datum=WGS84 +no_defs
    ## # A tibble: 107 x 4
    ## # Groups:   nombre [105]
    ##    nombre          nom_cant   celdas                              geometry
    ##    <fct>           <fct>       <int>                         <POLYGON [°]>
    ##  1 CHACARITA       Puntarenas      1 ((-84.77158 9.995557, -84.77136 9.99…
    ##  2 DESMONTE        San Mateo       1 ((-84.49772 9.942407, -84.49788 9.94…
    ##  3 EL ROBLE        Puntarenas      2 ((-84.73227 9.995191, -84.73142 9.99…
    ##  4 HACIENDA VIEJA  Orotina         2 ((-84.50119 9.902155, -84.50127 9.90…
    ##  5 ESPÍRITU SANTO  Esparza         3 ((-84.69772 9.975167, -84.69796 9.97…
    ##  6 HUACAS          Hojancha        3 ((-85.34772 10.0447, -85.34491 10.04…
    ##  7 LABRADOR        San Mateo       3 ((-84.64772 9.906791, -84.64773 9.90…
    ##  8 SAN JUAN GRANDE Esparza         3 ((-84.6558 9.952155, -84.65586 9.952…
    ##  9 CARMONA         Nandayure       4 ((-85.24772 9.972729, -85.24782 9.97…
    ## 10 EL MASTATE      Orotina         4 ((-84.54772 9.922297, -84.54772 9.92…
    ## # ... with 97 more rows
…
